<?xml version="1.0" encoding="UTF-8" ?>
<!DOCTYPE svg PUBLIC "-//W3C//DTD SVG 1.1//EN" "http://www.w3.org/Graphics/SVG/1.1/DTD/svg11.dtd">
<svg width="500pt" height="500pt" viewBox="0 0 500 500" version="1.1" xmlns="http://www.w3.org/2000/svg">
<g id="#000000ff">
<path fill="#000000" opacity="1.00" d=" M 470.07 15.10 C 475.04 10.50 479.36 5.24 484.62 0.96 C 489.43 5.77 494.25 10.58 499.07 15.40 C 497.89 16.77 496.72 18.14 495.50 19.47 C 337.50 177.49 179.49 335.49 21.48 493.49 C 19.43 495.57 17.51 497.76 15.64 500.00 L 14.36 500.00 C 9.92 494.87 5.12 490.08 0.00 485.63 L 0.00 484.36 C 4.24 481.18 7.99 477.42 11.60 473.56 C 164.43 320.75 317.24 167.92 470.07 15.10 Z" />
</g>
</svg>
