<?xml version="1.0" encoding="UTF-8" ?>
<!DOCTYPE svg PUBLIC "-//W3C//DTD SVG 1.1//EN" "http://www.w3.org/Graphics/SVG/1.1/DTD/svg11.dtd">
<svg width="500pt" height="500pt" viewBox="0 0 500 500" version="1.1" xmlns="http://www.w3.org/2000/svg">
<g id="#000000ff">
<path fill="#000000" opacity="1.00" d=" M 234.67 1.15 C 243.10 0.79 251.54 1.13 259.97 0.97 C 262.21 1.03 264.63 0.67 266.68 1.86 C 270.32 2.31 274.24 1.26 277.69 2.83 C 280.34 3.08 283.18 2.61 285.66 3.80 C 287.55 3.95 289.44 4.05 291.32 4.20 C 292.93 4.87 294.67 5.04 296.38 5.31 C 298.44 5.83 300.55 6.18 302.63 6.68 C 304.29 6.96 305.96 7.22 307.60 7.63 C 308.93 7.96 310.27 8.29 311.60 8.65 C 312.93 8.98 314.28 9.31 315.60 9.71 C 316.05 9.85 316.96 10.13 317.41 10.27 C 319.11 10.78 320.84 11.19 322.55 11.66 C 323.55 11.99 324.55 12.34 325.55 12.69 C 326.55 13.00 327.56 13.33 328.57 13.65 C 329.57 14.03 330.57 14.41 331.58 14.81 C 332.07 14.89 333.06 15.04 333.55 15.12 C 334.51 15.70 335.48 16.29 336.45 16.88 C 336.94 16.96 337.92 17.14 338.41 17.23 C 339.46 17.59 340.52 17.94 341.59 18.26 C 342.55 18.80 343.52 19.34 344.49 19.88 C 344.99 19.94 346.00 20.06 346.50 20.12 C 347.46 20.66 348.41 21.19 349.38 21.71 C 350.77 22.40 352.15 23.11 353.52 23.85 C 354.02 23.92 355.02 24.05 355.52 24.12 C 356.46 24.66 357.41 25.20 358.37 25.74 C 360.11 26.57 361.85 27.42 363.60 28.25 C 366.28 29.58 368.80 31.18 371.36 32.71 C 373.53 33.73 375.56 35.00 377.59 36.26 C 379.54 37.39 381.44 38.62 383.41 39.72 C 392.89 45.68 401.80 52.49 410.47 59.56 C 414.58 62.37 417.41 66.64 421.55 69.42 C 427.87 74.14 431.94 81.04 437.76 86.27 C 445.78 95.98 453.58 105.92 460.28 116.59 C 461.38 118.56 462.61 120.45 463.73 122.41 C 464.72 124.06 465.76 125.68 466.70 127.37 C 468.05 130.19 469.85 132.75 471.32 135.51 C 471.56 136.03 472.06 137.08 472.30 137.61 C 472.97 138.94 473.62 140.28 474.27 141.63 C 474.80 142.58 475.33 143.54 475.88 144.49 C 475.94 144.99 476.07 145.98 476.13 146.47 C 477.41 148.80 478.57 151.18 479.87 153.50 C 479.93 154.01 480.04 155.04 480.10 155.55 C 480.69 156.51 481.28 157.48 481.88 158.45 C 481.97 158.94 482.13 159.92 482.22 160.41 C 482.58 161.45 482.94 162.50 483.28 163.55 C 483.76 164.51 484.23 165.48 484.72 166.45 C 485.05 167.49 485.40 168.54 485.77 169.58 C 485.87 170.05 486.08 170.97 486.18 171.44 C 486.74 172.80 487.25 174.19 487.80 175.57 C 487.93 176.02 488.17 176.93 488.30 177.39 C 488.67 178.72 488.98 180.08 489.31 181.43 C 489.65 182.43 489.99 183.44 490.33 184.45 C 490.81 186.16 491.23 187.90 491.75 189.61 C 491.92 190.52 492.10 191.44 492.29 192.36 C 492.78 193.99 493.04 195.68 493.33 197.36 C 493.79 199.00 494.04 200.69 494.32 202.37 C 494.81 204.47 495.14 206.61 495.79 208.67 C 496.03 211.01 495.73 213.50 496.82 215.67 C 496.97 217.89 497.02 220.11 497.17 222.33 C 499.15 226.18 496.83 230.83 498.85 234.68 C 499.10 244.89 499.10 255.12 498.85 265.33 C 496.83 269.17 499.15 273.81 497.18 277.67 C 497.02 279.89 496.97 282.11 496.82 284.33 C 495.73 286.49 496.04 288.98 495.79 291.32 C 495.14 292.93 494.96 294.66 494.67 296.36 C 494.20 298.00 493.95 299.69 493.69 301.37 C 493.16 303.43 492.83 305.53 492.35 307.60 C 492.02 308.93 491.71 310.27 491.35 311.60 C 491.00 312.93 490.68 314.28 490.30 315.61 C 490.15 316.06 489.87 316.96 489.72 317.41 C 489.21 319.11 488.81 320.84 488.35 322.56 C 487.98 323.57 487.59 324.57 487.20 325.58 C 487.11 326.04 486.92 326.97 486.83 327.44 C 486.25 328.81 485.73 330.19 485.16 331.57 C 485.09 332.05 484.94 333.03 484.87 333.52 C 484.32 334.48 483.79 335.45 483.26 336.42 C 482.93 337.48 482.58 338.53 482.22 339.59 C 482.14 340.08 481.97 341.06 481.88 341.56 C 481.28 342.52 480.69 343.49 480.10 344.46 C 480.04 344.97 479.94 346.00 479.89 346.51 C 479.34 347.46 478.81 348.42 478.28 349.38 C 477.59 350.77 476.88 352.15 476.15 353.52 C 476.08 354.02 475.95 355.02 475.88 355.52 C 475.33 356.46 474.80 357.40 474.27 358.35 C 473.31 360.38 472.30 362.40 471.33 364.43 C 470.11 366.81 468.64 369.05 467.30 371.36 C 466.27 373.52 465.00 375.55 463.74 377.59 C 462.76 379.27 461.72 380.92 460.74 382.60 C 454.00 393.64 445.93 403.80 437.72 413.78 C 431.91 418.99 427.86 425.88 421.54 430.59 C 417.41 433.36 414.58 437.62 410.48 440.43 C 401.81 447.50 392.90 454.31 383.43 460.28 C 381.45 461.38 379.55 462.61 377.58 463.74 C 375.55 465.00 373.53 466.28 371.36 467.29 C 368.18 469.25 364.98 471.17 361.58 472.72 C 359.51 473.71 357.47 474.74 355.48 475.86 C 354.99 475.93 354.01 476.07 353.52 476.14 C 351.19 477.41 348.81 478.58 346.49 479.86 C 345.99 479.93 344.98 480.06 344.48 480.13 C 343.51 480.66 342.55 481.20 341.59 481.74 C 340.52 482.06 339.46 482.41 338.41 482.78 C 337.92 482.86 336.94 483.03 336.45 483.12 C 335.48 483.71 334.51 484.30 333.55 484.89 C 333.05 484.96 332.06 485.09 331.57 485.15 C 330.20 485.73 328.81 486.25 327.44 486.83 C 326.97 486.92 326.04 487.11 325.58 487.20 C 324.57 487.59 323.57 487.98 322.57 488.36 C 320.84 488.81 319.11 489.21 317.40 489.72 C 316.95 489.86 316.04 490.13 315.58 490.27 C 313.87 490.78 312.14 491.19 310.42 491.67 C 309.06 492.00 307.70 492.34 306.36 492.76 C 305.12 492.91 303.88 493.07 302.64 493.25 C 301.03 493.83 299.32 494.04 297.65 494.34 C 296.00 494.78 294.31 495.03 292.64 495.33 C 290.40 496.11 288.00 496.01 285.67 496.21 C 283.17 497.38 280.34 496.92 277.68 497.17 C 274.24 498.74 270.32 497.68 266.68 498.14 C 264.64 499.31 262.24 498.97 260.00 499.03 C 251.56 498.86 243.12 499.21 234.69 498.85 C 230.84 496.84 226.19 499.14 222.33 497.18 C 220.11 497.02 217.89 496.97 215.68 496.82 C 213.06 495.58 210.04 496.32 207.35 495.34 C 205.66 495.03 203.95 494.82 202.33 494.25 C 201.10 494.07 199.87 493.91 198.64 493.75 C 197.03 493.15 195.33 492.95 193.65 492.69 C 192.30 492.32 190.93 491.99 189.58 491.68 C 187.86 491.19 186.12 490.78 184.42 490.27 C 183.96 490.13 183.05 489.87 182.59 489.74 C 180.89 489.22 179.16 488.80 177.46 488.32 C 176.45 487.99 175.44 487.66 174.44 487.33 C 173.43 486.96 172.42 486.60 171.42 486.22 C 170.96 486.10 170.05 485.87 169.59 485.75 C 168.53 485.39 167.48 485.05 166.42 484.74 C 165.45 484.21 164.48 483.68 163.52 483.15 C 163.04 483.05 162.07 482.86 161.59 482.77 C 160.53 482.40 159.47 482.06 158.41 481.74 C 157.44 481.20 156.47 480.66 155.51 480.12 C 155.01 480.06 154.00 479.94 153.49 479.88 C 152.54 479.34 151.58 478.81 150.63 478.29 C 149.23 477.59 147.85 476.88 146.48 476.15 C 145.98 476.08 144.98 475.95 144.48 475.88 C 143.52 475.33 142.57 474.78 141.61 474.24 C 140.54 473.74 139.48 473.24 138.42 472.75 C 137.48 472.26 136.53 471.79 135.58 471.32 C 132.77 469.90 130.20 468.04 127.36 466.70 C 125.68 465.76 124.06 464.72 122.42 463.74 C 120.73 462.77 119.08 461.73 117.41 460.75 C 107.57 454.76 98.46 447.67 89.52 440.43 C 85.58 437.76 82.87 433.71 78.99 430.99 C 74.27 427.43 70.42 422.89 66.78 418.28 C 60.98 413.00 56.55 406.48 51.58 400.46 C 47.41 394.55 42.88 388.87 39.25 382.60 C 38.27 380.92 37.23 379.27 36.26 377.59 C 35.00 375.56 33.73 373.53 32.71 371.36 C 31.36 369.06 29.89 366.82 28.68 364.44 C 27.70 362.42 26.70 360.40 25.74 358.38 C 25.20 357.42 24.66 356.46 24.12 355.52 C 24.05 355.02 23.92 354.02 23.85 353.52 C 23.11 352.15 22.40 350.76 21.71 349.37 C 21.18 348.41 20.65 347.45 20.11 346.51 C 20.06 346.00 19.96 344.98 19.91 344.47 C 19.31 343.49 18.71 342.52 18.12 341.55 C 18.03 341.06 17.86 340.08 17.78 339.59 C 17.42 338.53 17.07 337.47 16.74 336.41 C 16.21 335.44 15.68 334.48 15.14 333.52 C 15.06 333.03 14.88 332.07 14.80 331.59 C 14.41 330.58 14.05 329.56 13.70 328.55 C 13.22 327.16 12.75 325.78 12.20 324.43 C 12.09 323.97 11.87 323.05 11.75 322.59 C 11.22 320.87 10.78 319.13 10.25 317.41 C 10.13 316.96 9.88 316.04 9.75 315.59 C 9.22 313.86 8.77 312.11 8.23 310.40 C 8.07 309.47 7.90 308.54 7.73 307.62 C 7.17 305.56 6.81 303.45 6.31 301.37 C 6.05 299.67 5.83 297.96 5.25 296.34 C 5.08 295.11 4.92 293.88 4.75 292.65 C 3.56 290.01 4.48 286.93 3.18 284.31 C 2.91 281.65 3.41 278.80 2.16 276.32 C 1.95 273.11 2.04 269.89 1.85 266.67 C 0.84 264.93 0.98 262.88 0.96 260.96 C 1.02 253.63 1.02 246.31 0.96 238.99 C 0.99 237.08 0.84 235.05 1.85 233.33 C 2.04 230.12 1.96 226.89 2.15 223.68 C 3.44 221.22 2.89 218.35 3.18 215.69 C 4.42 213.07 3.67 210.05 4.67 207.35 C 4.96 205.67 5.18 203.97 5.75 202.35 C 5.92 201.11 6.08 199.88 6.25 198.65 C 6.85 196.59 7.17 194.48 7.65 192.40 C 7.97 191.06 8.28 189.72 8.65 188.40 C 8.99 187.06 9.31 185.72 9.70 184.39 C 9.85 183.94 10.14 183.05 10.28 182.60 C 10.78 180.89 11.19 179.16 11.67 177.45 C 12.00 176.44 12.33 175.44 12.67 174.44 C 13.03 173.43 13.40 172.42 13.78 171.43 C 13.90 170.97 14.13 170.04 14.24 169.58 C 14.60 168.54 14.95 167.49 15.28 166.44 C 15.76 165.48 16.24 164.52 16.71 163.56 C 17.06 162.50 17.41 161.46 17.79 160.41 C 17.87 159.92 18.03 158.94 18.12 158.44 C 18.71 157.47 19.31 156.51 19.90 155.54 C 19.96 155.03 20.06 154.00 20.12 153.49 C 20.65 152.53 21.19 151.58 21.72 150.61 C 22.40 149.22 23.11 147.84 23.84 146.48 C 23.92 145.99 24.07 145.00 24.15 144.51 C 24.89 143.16 25.60 141.79 26.31 140.42 C 26.97 139.09 27.62 137.76 28.24 136.41 C 29.74 133.29 31.81 130.48 33.30 127.36 C 34.39 125.41 35.61 123.54 36.73 121.61 C 37.56 120.19 38.44 118.81 39.26 117.39 C 45.25 107.56 52.33 98.45 59.57 89.52 C 62.38 85.42 66.64 82.59 69.42 78.45 C 74.12 72.13 81.01 68.08 86.23 62.27 C 96.21 54.07 106.37 46.00 117.40 39.26 C 119.08 38.27 120.73 37.23 122.42 36.26 C 124.44 35.00 126.46 33.73 128.63 32.71 C 131.19 31.18 133.72 29.58 136.40 28.24 C 138.15 27.41 139.89 26.56 141.64 25.74 C 142.59 25.20 143.53 24.66 144.48 24.11 C 144.99 24.06 146.00 23.94 146.51 23.88 C 147.46 23.34 148.41 22.81 149.37 22.29 C 150.76 21.60 152.14 20.89 153.51 20.15 C 154.01 20.08 155.02 19.94 155.52 19.87 C 156.48 19.33 157.44 18.79 158.41 18.26 C 159.47 17.93 160.53 17.59 161.59 17.23 C 162.08 17.14 163.04 16.95 163.53 16.85 C 164.49 16.32 165.45 15.79 166.42 15.26 C 167.47 14.94 168.53 14.60 169.58 14.25 C 170.04 14.13 170.96 13.89 171.42 13.78 C 172.42 13.39 173.42 13.03 174.44 12.67 C 175.44 12.33 176.44 12.00 177.45 11.68 C 179.16 11.20 180.89 10.78 182.59 10.26 C 183.05 10.13 183.95 9.87 184.41 9.74 C 186.13 9.21 187.88 8.78 189.60 8.24 C 190.52 8.07 191.44 7.90 192.36 7.72 C 193.98 7.19 195.68 6.95 197.36 6.67 C 199.00 6.21 200.68 5.96 202.36 5.67 C 204.00 5.21 205.68 4.96 207.36 4.66 C 210.05 3.67 213.08 4.43 215.69 3.17 C 218.35 2.89 221.22 3.46 223.67 2.14 C 227.31 1.67 231.24 2.76 234.67 1.15 M 234.32 44.84 C 231.44 45.01 228.55 44.98 225.67 45.16 C 223.51 46.29 221.01 45.95 218.68 46.21 C 216.78 47.06 214.68 47.02 212.66 47.27 C 211.03 47.80 209.33 48.05 207.64 48.34 C 206.00 48.78 204.31 49.04 202.63 49.31 C 201.29 49.68 199.92 50.00 198.57 50.32 C 196.85 50.80 195.11 51.22 193.41 51.75 C 192.95 51.86 192.03 52.07 191.57 52.18 C 190.19 52.74 188.80 53.26 187.44 53.83 C 186.97 53.92 186.03 54.08 185.57 54.17 C 184.19 54.74 182.80 55.26 181.43 55.82 C 180.97 55.92 180.05 56.14 179.59 56.24 C 178.53 56.60 177.47 56.94 176.41 57.26 C 175.44 57.79 174.48 58.33 173.52 58.87 C 173.02 58.94 172.01 59.06 171.50 59.13 C 170.98 59.41 169.94 59.98 169.42 60.27 C 168.45 60.80 167.47 61.34 166.51 61.88 C 166.00 61.94 164.98 62.06 164.48 62.12 C 163.53 62.66 162.58 63.20 161.64 63.73 C 159.59 64.69 157.58 65.69 155.57 66.72 C 152.45 68.10 149.57 69.94 146.66 71.71 C 115.61 89.42 89.44 115.62 71.70 146.65 C 70.36 148.95 68.88 151.17 67.69 153.56 C 66.90 155.18 66.10 156.79 65.29 158.41 C 64.30 160.47 63.26 162.51 62.14 164.50 C 62.07 165.00 61.93 166.00 61.87 166.50 C 61.58 167.02 61.02 168.06 60.74 168.58 C 60.20 169.55 59.66 170.52 59.12 171.50 C 59.06 172.00 58.94 173.01 58.88 173.51 C 58.33 174.47 57.79 175.44 57.26 176.41 C 56.93 177.47 56.59 178.53 56.24 179.58 C 56.13 180.04 55.91 180.96 55.80 181.43 C 55.25 182.78 54.78 184.17 54.30 185.55 C 53.96 186.57 53.60 187.58 53.22 188.58 C 53.11 189.04 52.90 189.97 52.80 190.43 C 52.39 191.43 51.99 192.44 51.61 193.45 C 51.27 194.76 50.97 196.08 50.67 197.41 C 50.30 198.73 49.96 200.06 49.62 201.40 C 49.22 203.03 48.96 204.69 48.69 206.36 C 48.19 208.45 47.84 210.59 47.22 212.66 C 47.07 214.21 46.94 215.77 46.78 217.34 C 45.79 219.53 46.01 221.99 45.80 224.33 C 44.39 227.46 45.22 231.00 44.85 234.32 C 43.84 236.06 43.98 238.11 43.96 240.05 C 44.02 246.37 44.02 252.70 43.96 259.03 C 43.99 260.93 43.84 262.96 44.85 264.68 C 45.01 267.55 44.98 270.44 45.17 273.32 C 46.26 275.49 45.97 277.98 46.21 280.32 C 47.16 282.67 46.87 285.28 47.74 287.65 C 47.92 288.88 48.08 290.12 48.24 291.36 C 48.83 293.43 49.18 295.55 49.73 297.63 C 49.90 298.55 50.07 299.47 50.25 300.40 C 50.77 302.10 51.19 303.83 51.67 305.55 C 51.99 306.55 52.32 307.55 52.66 308.56 C 53.03 309.57 53.40 310.57 53.80 311.58 C 53.89 312.04 54.08 312.97 54.17 313.43 C 54.74 314.80 55.25 316.19 55.82 317.57 C 55.92 318.03 56.14 318.96 56.24 319.42 C 56.60 320.47 56.94 321.52 57.26 322.59 C 57.80 323.55 58.33 324.51 58.87 325.48 C 58.94 325.99 59.06 327.00 59.13 327.51 C 60.05 329.16 60.95 330.84 61.87 332.50 C 61.94 333.00 62.07 334.00 62.14 334.50 C 63.26 336.48 64.28 338.52 65.28 340.57 C 66.33 342.57 67.31 344.61 68.25 346.66 C 69.67 348.95 71.17 351.19 72.28 353.64 C 80.12 366.50 89.00 378.75 99.24 389.79 C 104.76 394.92 109.57 400.82 115.64 405.32 C 125.19 413.67 135.65 421.01 146.65 427.30 C 148.95 428.64 151.17 430.11 153.56 431.32 C 155.85 432.42 158.14 433.55 160.42 434.70 C 161.79 435.39 163.16 436.11 164.52 436.86 C 165.01 436.92 166.01 437.06 166.50 437.13 C 168.16 438.05 169.83 438.94 171.49 439.87 C 172.00 439.94 173.01 440.06 173.52 440.12 C 174.48 440.66 175.44 441.20 176.41 441.74 C 177.47 442.06 178.53 442.40 179.58 442.75 C 180.04 442.87 180.96 443.11 181.42 443.22 C 182.42 443.59 183.43 443.96 184.44 444.31 C 185.81 444.78 187.19 445.21 188.55 445.69 C 189.56 446.03 190.57 446.39 191.58 446.76 C 192.03 446.89 192.95 447.15 193.40 447.28 C 194.72 447.67 196.06 448.01 197.40 448.35 C 198.72 448.71 200.06 449.02 201.40 449.35 C 203.48 449.82 205.59 450.15 207.64 450.75 C 208.88 450.91 210.11 451.07 211.35 451.25 C 213.71 452.14 216.33 451.84 218.68 452.78 C 221.02 453.04 223.52 452.72 225.68 453.85 C 228.99 454.23 232.56 453.35 235.67 454.84 C 244.88 455.10 254.11 455.11 263.32 454.84 C 266.43 453.35 270.00 454.24 273.32 453.85 C 275.92 452.49 279.01 453.43 281.67 452.26 C 283.67 452.04 285.71 451.94 287.65 451.34 C 289.32 451.04 291.00 450.78 292.64 450.33 C 294.29 450.04 295.96 449.78 297.60 449.38 C 298.93 449.03 300.27 448.71 301.59 448.34 C 302.93 448.00 304.28 447.68 305.61 447.29 C 306.07 447.17 306.97 446.92 307.43 446.79 C 308.78 446.24 310.17 445.77 311.55 445.30 C 312.57 444.95 313.58 444.59 314.58 444.22 C 315.04 444.11 315.96 443.90 316.42 443.79 C 317.42 443.39 318.42 443.00 319.44 442.63 C 320.49 442.33 321.54 442.04 322.60 441.77 C 323.56 441.22 324.52 440.66 325.48 440.11 C 325.99 440.06 327.00 439.94 327.51 439.88 C 328.47 439.33 329.45 438.79 330.42 438.26 C 330.94 437.98 331.99 437.41 332.51 437.13 C 333.01 437.06 334.01 436.94 334.51 436.88 C 335.46 436.33 336.41 435.80 337.38 435.27 C 338.73 434.62 340.08 433.96 341.42 433.29 C 345.97 431.35 350.00 428.46 354.44 426.30 C 364.24 419.96 374.10 413.61 382.81 405.79 C 389.44 400.82 394.77 394.41 400.78 388.75 C 410.72 377.49 419.93 365.46 427.29 352.35 C 428.39 350.42 429.61 348.56 430.74 346.65 C 431.38 345.28 432.03 343.93 432.71 342.58 C 433.58 340.85 434.44 339.11 435.27 337.35 C 435.80 336.40 436.34 335.46 436.88 334.52 C 436.94 334.01 437.06 333.00 437.12 332.50 C 438.05 330.84 438.95 329.16 439.88 327.51 C 439.94 327.00 440.06 325.99 440.12 325.48 C 440.66 324.52 441.20 323.56 441.74 322.60 C 442.06 321.53 442.40 320.47 442.76 319.41 C 442.86 318.95 443.08 318.03 443.18 317.57 C 443.74 316.19 444.26 314.80 444.82 313.43 C 444.92 312.97 445.11 312.04 445.21 311.58 C 445.59 310.57 445.96 309.57 446.33 308.56 C 446.67 307.55 447.02 306.54 447.36 305.53 C 447.72 304.22 448.02 302.91 448.33 301.60 C 448.70 300.27 449.03 298.93 449.39 297.61 C 449.77 295.97 450.03 294.30 450.33 292.64 C 450.79 291.00 451.03 289.31 451.34 287.64 C 452.03 285.24 451.89 282.67 452.78 280.33 C 453.05 277.98 452.69 275.48 453.85 273.33 C 454.25 270.01 453.33 266.42 454.85 263.32 C 455.20 255.87 454.87 248.41 455.04 240.96 C 454.98 238.73 455.29 236.36 454.16 234.33 C 453.98 231.44 454.01 228.55 453.84 225.67 C 452.46 223.08 453.50 219.96 452.22 217.34 C 452.05 215.77 451.92 214.21 451.78 212.65 C 451.16 210.59 450.81 208.46 450.32 206.37 C 450.05 204.69 449.82 202.99 449.28 201.36 C 449.09 200.44 448.93 199.51 448.77 198.59 C 448.22 196.87 447.77 195.13 447.23 193.42 C 447.13 192.96 446.91 192.04 446.80 191.57 C 446.24 190.22 445.77 188.83 445.30 187.45 C 444.95 186.43 444.60 185.42 444.22 184.41 C 444.12 183.95 443.90 183.04 443.79 182.58 C 443.39 181.57 443.01 180.57 442.64 179.56 C 442.33 178.51 442.04 177.46 441.77 176.41 C 441.22 175.44 440.67 174.48 440.12 173.52 C 440.06 173.01 439.94 172.00 439.88 171.49 C 438.95 169.83 438.05 168.16 437.12 166.51 C 437.06 166.00 436.94 164.99 436.88 164.48 C 436.34 163.54 435.80 162.59 435.27 161.65 C 434.44 159.89 433.58 158.15 432.72 156.41 C 431.16 153.02 429.25 149.82 427.29 146.65 C 424.01 140.23 419.49 134.53 415.61 128.47 C 409.26 120.20 402.86 111.89 395.23 104.74 C 383.04 91.96 368.65 81.50 353.63 72.28 C 350.79 70.96 348.23 69.11 345.45 67.67 C 344.10 67.03 342.76 66.38 341.42 65.73 C 339.10 64.56 336.76 63.41 334.50 62.14 C 333.99 62.07 332.99 61.94 332.49 61.87 C 331.52 61.33 330.54 60.80 329.58 60.26 C 329.06 59.98 328.02 59.41 327.50 59.13 C 327.00 59.07 325.99 58.94 325.49 58.88 C 324.52 58.33 323.55 57.80 322.58 57.26 C 321.52 56.93 320.46 56.59 319.42 56.24 C 318.96 56.13 318.03 55.92 317.57 55.82 C 316.19 55.26 314.80 54.75 313.44 54.18 C 312.97 54.08 312.04 53.89 311.58 53.79 C 310.57 53.40 309.57 53.03 308.56 52.66 C 307.55 52.32 306.55 52.00 305.54 51.68 C 303.83 51.19 302.10 50.77 300.40 50.25 C 299.47 50.08 298.55 49.90 297.63 49.73 C 296.01 49.17 294.31 48.95 292.63 48.69 C 290.54 48.19 288.42 47.82 286.35 47.26 C 284.32 47.03 282.22 47.06 280.33 46.21 C 277.98 45.95 275.48 46.29 273.33 45.16 C 270.44 44.98 267.56 45.01 264.68 44.84 C 262.95 43.86 260.94 43.97 259.03 43.96 C 252.69 44.02 246.34 44.02 240.00 43.96 C 238.08 43.98 236.06 43.86 234.32 44.84 Z" />
</g>
</svg>
