<?xml version="1.0" encoding="UTF-8" ?>
<!DOCTYPE svg PUBLIC "-//W3C//DTD SVG 1.1//EN" "http://www.w3.org/Graphics/SVG/1.1/DTD/svg11.dtd">
<svg width="500pt" height="500pt" viewBox="0 0 500 500" version="1.1" xmlns="http://www.w3.org/2000/svg">
<g id="#000000ff">
<path fill="#000000" opacity="1.00" d=" M 361.01 0.00 L 500.00 0.00 L 500.00 139.00 C 493.03 138.95 486.05 139.17 479.09 138.91 C 478.87 112.94 479.07 86.97 479.00 61.00 C 478.91 52.59 479.22 44.18 478.84 35.77 C 475.27 38.52 472.10 41.72 469.00 44.98 C 320.66 193.32 172.32 341.66 23.99 490.00 C 21.06 492.76 18.63 496.23 14.96 498.08 C 12.52 497.02 10.74 494.95 8.89 493.12 C 5.98 490.03 2.91 487.09 0.00 484.00 L 0.00 483.32 C 3.27 480.84 6.26 478.04 9.09 475.08 C 155.57 328.58 302.08 182.10 448.56 35.59 C 453.27 30.94 458.25 26.49 462.23 21.16 C 428.52 20.71 394.80 21.24 361.09 20.91 C 360.83 13.94 361.05 6.97 361.01 0.00 Z" />
</g>
</svg>
