[
    {
        "name" 		: "tour_application",
        "bgcolor"	: "black",
        "color"		: "white",
        "position"	: "T",
        "title"		: "Choosing your application",
        "text"		: "Application Portal brings information together in a uniform way. It has all form categories that serves as applications. <ul><li><p class='tooltip_content'><font color='red'>*</font> Note you need to select an app to proceed. <br><br> Please select one.<p></li></ul>",
        "time" 		: 5000
    }
]